BATS_Val_57_Exploratory-Analysis - Analysis of UVP data along a transect
…
max_d <- rep(NA, length(uvp_dat$zoo_files))
for(i in 1:length(uvp_dat$zoo_files)) {
  max_d[i] <- get_max_d(uvp_dat$zoo_files[[i]])
}
depth_tibble <- tibble(profileid = names(uvp_dat$zoo_files),
                       max_d = max_d)

uvp_dat$meta <- as_tibble(merge(uvp_dat$meta,
                                depth_tibble))
tibble(Profile_id = uvp_dat$meta$profileid,
       lat = uvp_dat$meta$latitude,
       tod = uvp_dat$meta$time_of_day,
       max_d = uvp_dat$meta$max_d)

# A tibble: 21 x 4
   Profile_id   lat tod   max_d
   <chr>      <dbl> <chr> <dbl>
 1 bv57c1      30.7 day    499 
 2 bv57c10     26.7 day   1206.
 3 bv57c11     26.7 night 1206.
 4 bv57c12     27.7 day    489 
 5 bv57c13     27.7 day   5422.
 6 bv57c14     29.7 day   4992.
 7 bv57c15     31.7 night 4612.
 8 bv57c16     33.7 day   4830.
 9 bv57c17     35.7 day    502.
10 bv57c18     35.7 day   4366.
# ... with 11 more rows
…
